<svg xmlns="http://www.w3.org/2000/svg" width="114.081" height="111.504" viewBox="0 0 114.081 111.504">
  <g id="Group_40" data-name="Group 40" transform="translate(2.287 2.286)">
    <circle id="Ellipse_1" data-name="Ellipse 1" cx="53.466" cy="53.466" r="53.466" stroke-dasharray="177.866 16.393 177.866 0 4.991 2.494" stroke="#fff" stroke-linecap="round" stroke-miterlimit="10" stroke-width="4.573" fill="none"/>
    <circle id="Ellipse_2" data-name="Ellipse 2" cx="12.338" cy="12.338" r="12.338" transform="translate(84.831 13.978)" fill="#fff" stroke="#4dc9eb" stroke-miterlimit="10" stroke-width="4.573"/>
    <circle id="Ellipse_3" data-name="Ellipse 3" cx="24.676" cy="24.676" r="24.676" transform="translate(28.789 28.789)" fill="#fff" stroke="#4dc9eb" stroke-miterlimit="10" stroke-width="4.573"/>
  </g>
</svg>
