<svg xmlns="http://www.w3.org/2000/svg" xmlns:xlink="http://www.w3.org/1999/xlink" width="280" height="188" viewBox="0 0 280 188">
  <defs>
    <filter id="Rectangle_279" x="166" y="75" width="74.09" height="78.85" filterUnits="userSpaceOnUse">
      <feOffset dy="3" input="SourceAlpha"/>
      <feGaussianBlur stdDeviation="3" result="blur"/>
      <feFlood flood-opacity="0.161"/>
      <feComposite operator="in" in2="blur"/>
      <feComposite in="SourceGraphic"/>
    </filter>
  </defs>
  <g id="Group_213" data-name="Group 213" transform="translate(-558 -623)">
    <text id="Use_for:_primary_color_CTA_and_active_status." data-name="Use for: primary color, CTA, and active status." transform="translate(559 672)" fill="#141823" font-size="14" font-family="Lato-Regular, Lato"><tspan x="0" y="0">Use for: primary color, CTA, and active status.</tspan></text>
    <g id="COLOR-GROUP-GREEN" transform="translate(558 711)">
      <rect id="Rectangle_4" data-name="Rectangle 4" width="90.642" height="100" transform="translate(0)" fill="#00c081"/>
      <rect id="Rectangle_7" data-name="Rectangle 7" width="46.089" height="50.847" transform="translate(90.642)" fill="#26c994"/>
      <rect id="Rectangle_10" data-name="Rectangle 10" width="46.089" height="50.847" transform="translate(136.732)" fill="#4dd3a7"/>
      <rect id="Rectangle_13" data-name="Rectangle 13" width="46.089" height="50.847" transform="translate(182.821)" fill="#b3ecd9"/>
      <rect id="Rectangle_14" data-name="Rectangle 14" width="46.089" height="50.847" transform="translate(228.911)" fill="#e0f7f0"/>
      <path id="Path_1" data-name="Path 1" d="M0,0H46.089V50.847H0Z" transform="translate(90.642 49.153)" fill="#00ba79"/>
      <path id="Path_4" data-name="Path 4" d="M0,0H46.089V50.847H0Z" transform="translate(136.732 49.153)" fill="#00b26e"/>
      <path id="Path_7" data-name="Path 7" d="M0,0H46.089V50.847H0Z" transform="translate(182.821 49.153)" fill="#00aa64"/>
      <path id="Path_10" data-name="Path 10" d="M0,0H46.089V50.847H0Z" transform="translate(228.911 49.153)" fill="#009c51"/>
      <g id="Group_1" data-name="Group 1" transform="translate(33.623 33)">
        <text id="_500" data-name="500" transform="translate(-5.623 16)" font-size="20" font-family="Lato-Bold, Lato" font-weight="700"><tspan x="0" y="0">500</tspan></text>
        <text id="_00C081" data-name="#00C081" transform="translate(-8.623 35.09)" fill="#3c3c3c" font-size="10" font-family="Lato-Bold, Lato" font-weight="700"><tspan x="0" y="0">#00C081</tspan></text>
      </g>
      <rect id="Rectangle_264" data-name="Rectangle 264" width="106" height="16" rx="4" transform="translate(170 -83)" fill="#f9f2f4"/>
      <text id="_eos-bc-green-500" data-name="$eos-bc-green-500" transform="translate(274 -71)" fill="#c7254e" font-size="12" font-family="Lato-Medium, Lato" font-weight="500"><tspan x="-101.886" y="0">$eos-bc-green-500</tspan></text>
    </g>
    <text id="Green" transform="translate(558 641)" fill="#141823" font-size="18" font-family="Lato-Bold, Lato" font-weight="700"><tspan x="0" y="0">Green</tspan></text>
    <g transform="matrix(1, 0, 0, 1, 558, 623)" filter="url(#Rectangle_279)">
      <rect id="Rectangle_279-2" data-name="Rectangle 279" width="56.09" height="60.85" transform="translate(175 81)" fill="#b3ecd9"/>
    </g>
    <g id="Group_176" data-name="Group 176" transform="translate(747.623 718)">
      <text id="_200" data-name="200" transform="translate(-5.623 16)" font-size="20" font-family="Lato-Bold, Lato" font-weight="700"><tspan x="0" y="0">200</tspan></text>
      <text id="_B3ECD9" data-name="#B3ECD9" transform="translate(-8.623 35.09)" fill="#3c3c3c" font-size="10" font-family="Lato-Bold, Lato" font-weight="700"><tspan x="0" y="0">#B3ECD9</tspan></text>
    </g>
    <g id="Group_211" data-name="Group 211" transform="translate(0 6)">
      <g id="Group_206" data-name="Group 206" transform="translate(730 655.73)" opacity="0.999">
        <rect id="Rectangle_17" data-name="Rectangle 17" width="62" height="24" rx="5" transform="translate(0 4.27)" fill="#141823"/>
        <rect id="Rectangle_18" data-name="Rectangle 18" width="9" height="9" transform="translate(31.364 21.407) rotate(45)" fill="#141823"/>
      </g>
      <text id="Copied_" data-name="Copied!" transform="translate(737 677.5)" fill="#fff" font-size="14" font-family="Lato-Regular, Lato"><tspan x="0" y="0">Copied!</tspan></text>
    </g>
  </g>
</svg>
