<svg xmlns="http://www.w3.org/2000/svg" width="62.886" height="78.607" viewBox="0 0 62.886 78.607">
  <path id="ic_play_for_work_24px" d="M32.2,5V34.294H13.861L37.443,57.877,61.025,34.294H42.683V5ZM6,52.164a31.443,31.443,0,0,0,62.886,0H58.4a20.962,20.962,0,0,1-41.924,0Z" transform="translate(-6 -5)" fill="#ebebeb"/>
</svg>
